…
``` r
alex_data_mean %>% 
  undersample_data_timepoints_random(num_timepoints = 5)
```

    ## # A tibble: 100 × 5
    ##    locus_name       accession tissue timepoint mean_cpm
    ##    <chr>            <fct>     <fct>      <int>    <dbl>
    ##  1 BRAA02G018970.3C Col0      apex           7   0.270 
    ##  2 BRAA02G018970.3C Col0      apex          11   0.0702
    ##  3 BRAA02G018970.3C Col0      apex          12   0.192 
    ##  4 BRAA02G018970.3C Col0      apex          14  34.1   
    ##  5 BRAA02G018970.3C Col0      apex          16 204.    
    ##  6 BRAA02G018970.3C Ro18      apex          11   0.851 
    ##  7 BRAA02G018970.3C Ro18      apex          23  20.2   
    ##  8 BRAA02G018970.3C Ro18      apex          27  23.1   
    ##  9 BRAA02G018970.3C Ro18      apex          33  19.9   
    ## 10 BRAA02G018970.3C Ro18      apex          35  22.5   
    ## # … with 90 more rows
…
