…
human_data <- human_data %>% 
  filter(Gene_name %in% list_gene) %>% 
  select(-c("V1", "Chr", "Strand", "Start", "End", "Description", "TransCount", "Gene_type", 
            "Source", "Status", "D94.2")) %>% 
  tidyr::pivot_longer(!Gene_name, names_to = "dev_stage", values_to = "expression_value")  

human_data <- human_data %>% 
  dplyr::filter(dev_stage %in% human_dev_stage) %>% 
  dplyr::mutate(species = "human")

human_data
```

    ## # A tibble: 120 × 4
    ##    Gene_name dev_stage expression_value species
    ##    <chr>     <chr>                <dbl> <chr>  
    ##  1 TSPAN6    D52.54               144.  human  
    ##  2 TSPAN6    D53                  109.  human  
    ##  3 TSPAN6    D57                  100.  human  
    ##  4 TSPAN6    D67                  102.  human  
    ##  5 TSPAN6    D80                   76.8 human  
    ##  6 TSPAN6    D94                   81.7 human  
    ##  7 TSPAN6    D105                  76.5 human  
    ##  8 TSPAN6    D107                  83.2 human  
    ##  9 TSPAN6    D115                  72.8 human  
    ## 10 TSPAN6    D125                  77.2 human  
    ## # … with 110 more rows
…
